-0.4899419832964309
0.06738312591426748
-1.1542632091590697
-1.9356657852033867
-0.6110302869271774
0.6743588269740558
2.230092501759657
-0.028709648105570487
-0.052865843210803024
-0.03202919636957782
0.19257875635261104
-0.9109901028111523
-0.09826351970664055
-0.4123349091240028
-1.5218274508242249
0.9956711927313496
-0.3975550090245129
0.05826205317917482
-0.37174004547155376
1.6182096855020536
-0.4001217083186924
-0.1491316133560479
0.4250265397090594
-0.3941220877363585
-1.578362573248611
1.1280944739831331
-1.397988395314463
1.0106605359043168
1.0909716008949002
-0.060237269886012385
-0.9908892571232124
-0.6230625287368285
-0.20823357600220918
-0.09835093637461417
0.15563967268761925
0.7241653242675833
-0.30774532265560844
0.0463044438578544
0.7256139863122812
-0.154577000321955
-1.3430477218186645
0.9110220341921464
1.5668332626995611
0.9209952723251255
0.6771096251273192
-1.675785337423962
-0.5677283115740349
-0.8171635321925798
0.04075126398427183
0.4875918777279737
0.8047479901976682
0.309556753342221
-0.0032465221066968033
-1.3999932380538884
0.9498781919593583
-0.2455571480608655
-0.003448967205088804
0.6834344105424915
-0.3965708618778523
0.6692015314135509
-0.6318356078885002
0.5966397939087287
1.4492198313635969
-1.0952287953847624
0.2385571353561745
-0.2829268089789639
-1.0664191702286465
0.38093380715885916
0.9267618178554063
-0.4665276162228792
0.3733623910392327
-0.09386325821402404
-0.18723840200252523
0.7748041893556197
-1.4129836811491732
-0.3215878571792126
1.5537865794180856
1.6399723708405056
0.038795218077045515
-2.653006236776507
0.8367114725540453
1.0209311383181943
-1.5982916939138772
0.8758996038461928
-1.3778255725693862
-0.26289873483951676
-0.37055435038841134
0.20334774836988115
-2.171999236424971
-0.5606586937397181
2.2062161955858497
0.8845737795846786
0.2159871220697133
0.553770152743721
0.5651931170926366
1.5288953851529732
1.1546593722799476
-0.600446604624024
0.9243448478625912
-0.8643585236160201
